{
  "project_info": {
    "project_number": "174011110638",
    "project_id": "banisholeh-mobile",
    "storage_bucket": "banisholeh-mobile.appspot.com"
  },
  "client": [
    {
      "client_info": {
        "mobilesdk_app_id": "1:174011110638:android:10b205da52c6fea3130fff",
        "android_client_info": {
          "package_name": "com.banisoleh.banisoleh_mobile"
        }
      },
      "oauth_client": [
        {
          "client_id": "174011110638-bo1qdbci9o6d86g7j2bddkfmcjanh6uk.apps.googleusercontent.com",
          "client_type": 3
        }
      ],
      "api_key": [
        {
          "current_key": "AIzaSyCl7wD6-ubRQq2vNu3593u9Y5fdTsTLIDw"
        }
      ],
      "services": {
        "appinvite_service": {
          "other_platform_oauth_client": [
            {
              "client_id": "174011110638-bo1qdbci9o6d86g7j2bddkfmcjanh6uk.apps.googleusercontent.com",
              "client_type": 3
            }
          ]
        }
      }
    }
  ],
  "configuration_version": "1"
}